%YAML 1.1
%TAG !u! tag:unity3d.com,2011:
--- !u!74 &7400000
AnimationClip:
  m_ObjectHideFlags: 0
  m_CorrespondingSourceObject: {fileID: 0}
  m_PrefabInstance: {fileID: 0}
  m_PrefabAsset: {fileID: 0}
  m_Name: CaminarAtras
  serializedVersion: 6
  m_Legacy: 0
  m_Compressed: 0
  m_UseHighQualityCurve: 1
  m_RotationCurves: []
  m_CompressedRotationCurves: []
  m_EulerCurves: []
  m_PositionCurves: []
  m_ScaleCurves: []
  m_FloatCurves: []
  m_PPtrCurves:
  - curve:
    - time: 0
      value: {fileID: 21300000, guid: 72009d71aa841bf4a9c201ea81f03911, type: 3}
    - time: 0.083333336
      value: {fileID: 21300000, guid: b0b7008f1c6851d4183edd4dd4cace68, type: 3}
    - time: 0.16666667
      value: {fileID: 21300000, guid: 0573462db90015e4ba83acbf9918b482, type: 3}
    - time: 0.25
      value: {fileID: 21300000, guid: 788d3de79715aea4a916d063ecf1221c, type: 3}
    - time: 0.33333334
      value: {fileID: 21300000, guid: be04b3dbecb1b7a4a9a1f1571b50d585, type: 3}
    - time: 0.41666666
      value: {fileID: 21300000, guid: 73442b13bf668524ea6ab0ca05dc074e, type: 3}
    - time: 0.5
      value: {fileID: 21300000, guid: 61842c0f15aceab46b86aa46f633866b, type: 3}
    - time: 0.5833333
      value: {fileID: 21300000, guid: 32e73a6a83b6abc4899110c3506a875a, type: 3}
    - time: 0.6666667
      value: {fileID: 21300000, guid: fb37af6497fe97240ac31a3cf4feaed1, type: 3}
    - time: 0.75
      value: {fileID: 21300000, guid: ddd4eddb16cfb1e4baf72414337d9294, type: 3}
    - time: 0.8333333
      value: {fileID: 21300000, guid: 2b34fd49b5fbe474aa82d24cce3eb761, type: 3}
    - time: 0.9166667
      value: {fileID: 21300000, guid: a153ceed0354d7d4285f62d12b0556cc, type: 3}
    - time: 1
      value: {fileID: 21300000, guid: 6e1ea77caeeaca14daa0ed864420beb3, type: 3}
    - time: 1.0833334
      value: {fileID: 21300000, guid: 037e5ec63de49e64b9d0a8678e609ec4, type: 3}
    - time: 1.1666666
      value: {fileID: 21300000, guid: 3c9a3b13332aa1943b7dbff6b38aeb5e, type: 3}
    - time: 1.25
      value: {fileID: 21300000, guid: 96256ac5dc4b7034ba139a401853f7a5, type: 3}
    attribute: m_Sprite
    path: 
    classID: 212
    script: {fileID: 0}
  m_SampleRate: 60
  m_WrapMode: 0
  m_Bounds:
    m_Center: {x: 0, y: 0, z: 0}
    m_Extent: {x: 0, y: 0, z: 0}
  m_ClipBindingConstant:
    genericBindings:
    - serializedVersion: 2
      path: 0
      attribute: 0
      script: {fileID: 0}
      typeID: 212
      customType: 23
      isPPtrCurve: 1
    pptrCurveMapping:
    - {fileID: 21300000, guid: 72009d71aa841bf4a9c201ea81f03911, type: 3}
    - {fileID: 21300000, guid: b0b7008f1c6851d4183edd4dd4cace68, type: 3}
    - {fileID: 21300000, guid: 0573462db90015e4ba83acbf9918b482, type: 3}
    - {fileID: 21300000, guid: 788d3de79715aea4a916d063ecf1221c, type: 3}
    - {fileID: 21300000, guid: be04b3dbecb1b7a4a9a1f1571b50d585, type: 3}
    - {fileID: 21300000, guid: 73442b13bf668524ea6ab0ca05dc074e, type: 3}
    - {fileID: 21300000, guid: 61842c0f15aceab46b86aa46f633866b, type: 3}
    - {fileID: 21300000, guid: 32e73a6a83b6abc4899110c3506a875a, type: 3}
    - {fileID: 21300000, guid: fb37af6497fe97240ac31a3cf4feaed1, type: 3}
    - {fileID: 21300000, guid: ddd4eddb16cfb1e4baf72414337d9294, type: 3}
    - {fileID: 21300000, guid: 2b34fd49b5fbe474aa82d24cce3eb761, type: 3}
    - {fileID: 21300000, guid: a153ceed0354d7d4285f62d12b0556cc, type: 3}
    - {fileID: 21300000, guid: 6e1ea77caeeaca14daa0ed864420beb3, type: 3}
    - {fileID: 21300000, guid: 037e5ec63de49e64b9d0a8678e609ec4, type: 3}
    - {fileID: 21300000, guid: 3c9a3b13332aa1943b7dbff6b38aeb5e, type: 3}
    - {fileID: 21300000, guid: 96256ac5dc4b7034ba139a401853f7a5, type: 3}
  m_AnimationClipSettings:
    serializedVersion: 2
    m_AdditiveReferencePoseClip: {fileID: 0}
    m_AdditiveReferencePoseTime: 0
    m_StartTime: 0
    m_StopTime: 1.2666667
    m_OrientationOffsetY: 0
    m_Level: 0
    m_CycleOffset: 0
    m_HasAdditiveReferencePose: 0
    m_LoopTime: 1
    m_LoopBlend: 0
    m_LoopBlendOrientation: 0
    m_LoopBlendPositionY: 0
    m_LoopBlendPositionXZ: 0
    m_KeepOriginalOrientation: 0
    m_KeepOriginalPositionY: 1
    m_KeepOriginalPositionXZ: 0
    m_HeightFromFeet: 0
    m_Mirror: 0
  m_EditorCurves: []
  m_EulerEditorCurves: []
  m_HasGenericRootTransform: 0
  m_HasMotionFloatCurves: 0
  m_Events: []
