%YAML 1.1
%TAG !u! tag:unity3d.com,2011:
--- !u!74 &7400000
AnimationClip:
  m_ObjectHideFlags: 0
  m_CorrespondingSourceObject: {fileID: 0}
  m_PrefabInstance: {fileID: 0}
  m_PrefabAsset: {fileID: 0}
  m_Name: Salto
  serializedVersion: 6
  m_Legacy: 0
  m_Compressed: 0
  m_UseHighQualityCurve: 1
  m_RotationCurves: []
  m_CompressedRotationCurves: []
  m_EulerCurves: []
  m_PositionCurves: []
  m_ScaleCurves: []
  m_FloatCurves: []
  m_PPtrCurves:
  - curve:
    - time: 0
      value: {fileID: 21300000, guid: 24e9156ec40f472468cbc47641a68150, type: 3}
    - time: 0.083333336
      value: {fileID: 21300000, guid: e479cbe8afacba04c9a630f40b0be5c1, type: 3}
    - time: 0.16666667
      value: {fileID: 21300000, guid: 89bd41a7f86493e49a0e7eb65e77350c, type: 3}
    - time: 0.25
      value: {fileID: 21300000, guid: 104fe1c3549181746b8e084e1f58b8de, type: 3}
    - time: 0.33333334
      value: {fileID: 21300000, guid: 0e7f79a0c8cfc0d4ba159fb76b18b55e, type: 3}
    - time: 0.41666666
      value: {fileID: 21300000, guid: 3e440af39ad2cec43bd85ac5a384b203, type: 3}
    - time: 0.5
      value: {fileID: 21300000, guid: 53a51929abfa8c64a95334577b293f5e, type: 3}
    - time: 0.5833333
      value: {fileID: 21300000, guid: 4621a01d6cbe51841981166336faa47f, type: 3}
    - time: 0.6666667
      value: {fileID: 21300000, guid: 6f34f6dce2275ba41b6f14dfbc41c92d, type: 3}
    - time: 0.75
      value: {fileID: 21300000, guid: e16e75cb8b8b4584591709bb11f6b9e2, type: 3}
    - time: 0.8333333
      value: {fileID: 21300000, guid: 1c7693427f345b647a3be993669a215d, type: 3}
    - time: 0.9166667
      value: {fileID: 21300000, guid: 5e24c2f91de6b5444b825fb14be375af, type: 3}
    - time: 1
      value: {fileID: 21300000, guid: bd013f16d15d96b46818638b3c119785, type: 3}
    - time: 1.0833334
      value: {fileID: 21300000, guid: a42562e73cc0a3a409213df65e3beeff, type: 3}
    - time: 1.1666666
      value: {fileID: 21300000, guid: dae194c8dbfba8947831e43b0d641518, type: 3}
    - time: 1.25
      value: {fileID: 21300000, guid: 966c204ae2705444287eb05ad9dd8572, type: 3}
    attribute: m_Sprite
    path: 
    classID: 212
    script: {fileID: 0}
  m_SampleRate: 60
  m_WrapMode: 0
  m_Bounds:
    m_Center: {x: 0, y: 0, z: 0}
    m_Extent: {x: 0, y: 0, z: 0}
  m_ClipBindingConstant:
    genericBindings:
    - serializedVersion: 2
      path: 0
      attribute: 0
      script: {fileID: 0}
      typeID: 212
      customType: 23
      isPPtrCurve: 1
    pptrCurveMapping:
    - {fileID: 21300000, guid: 24e9156ec40f472468cbc47641a68150, type: 3}
    - {fileID: 21300000, guid: e479cbe8afacba04c9a630f40b0be5c1, type: 3}
    - {fileID: 21300000, guid: 89bd41a7f86493e49a0e7eb65e77350c, type: 3}
    - {fileID: 21300000, guid: 104fe1c3549181746b8e084e1f58b8de, type: 3}
    - {fileID: 21300000, guid: 0e7f79a0c8cfc0d4ba159fb76b18b55e, type: 3}
    - {fileID: 21300000, guid: 3e440af39ad2cec43bd85ac5a384b203, type: 3}
    - {fileID: 21300000, guid: 53a51929abfa8c64a95334577b293f5e, type: 3}
    - {fileID: 21300000, guid: 4621a01d6cbe51841981166336faa47f, type: 3}
    - {fileID: 21300000, guid: 6f34f6dce2275ba41b6f14dfbc41c92d, type: 3}
    - {fileID: 21300000, guid: e16e75cb8b8b4584591709bb11f6b9e2, type: 3}
    - {fileID: 21300000, guid: 1c7693427f345b647a3be993669a215d, type: 3}
    - {fileID: 21300000, guid: 5e24c2f91de6b5444b825fb14be375af, type: 3}
    - {fileID: 21300000, guid: bd013f16d15d96b46818638b3c119785, type: 3}
    - {fileID: 21300000, guid: a42562e73cc0a3a409213df65e3beeff, type: 3}
    - {fileID: 21300000, guid: dae194c8dbfba8947831e43b0d641518, type: 3}
    - {fileID: 21300000, guid: 966c204ae2705444287eb05ad9dd8572, type: 3}
  m_AnimationClipSettings:
    serializedVersion: 2
    m_AdditiveReferencePoseClip: {fileID: 0}
    m_AdditiveReferencePoseTime: 0
    m_StartTime: 0
    m_StopTime: 1.2666667
    m_OrientationOffsetY: 0
    m_Level: 0
    m_CycleOffset: 0
    m_HasAdditiveReferencePose: 0
    m_LoopTime: 0
    m_LoopBlend: 0
    m_LoopBlendOrientation: 0
    m_LoopBlendPositionY: 0
    m_LoopBlendPositionXZ: 0
    m_KeepOriginalOrientation: 0
    m_KeepOriginalPositionY: 1
    m_KeepOriginalPositionXZ: 0
    m_HeightFromFeet: 0
    m_Mirror: 0
  m_EditorCurves: []
  m_EulerEditorCurves: []
  m_HasGenericRootTransform: 0
  m_HasMotionFloatCurves: 0
  m_Events: []
